Fiscal Characteristics of Major US Public Transit Systems – STA 9750 2024 Submission Material
…
# 1. What transit agency had the most total VRM in our dataset?

agency_highest_VRM <- USAGE |> 
  drop_na()|>
  select(Agency, Vehicle_Revenue_Miles) |>
  group_by(Agency) |>
  summarize(total_Vehicle_Revenue_Miles = sum(Vehicle_Revenue_Miles)) |>
  arrange(desc(total_Vehicle_Revenue_Miles))
print(agency_highest_VRM)

# A tibble: 677 × 2
   Agency                                                 total_Vehicle_Revenu…¹
   <chr>                                                                   <dbl>
 1 MTA New York City Transit                                         10832855350
 2 New Jersey Transit Corporation                                     5645525525
 3 Los Angeles County Metropolitan Transportation Author…             4354016659
 4 Washington Metropolitan Area Transit Authority                     2821950701
 5 Chicago Transit Authority                                          2806202144
 6 Southeastern Pennsylvania Transportation Authority                 2672630410
 7 Massachusetts Bay Transportation Authority                         2383967378
 8 Pace, the Suburban Bus Division of the Regional Trans…             2379409930
 9 Metropolitan Transit Authority of Harris County, Texas             2272940948
10 Denver Regional Transportation District                            1991411970
# ℹ 667 more rows
# ℹ abbreviated name: ¹​total_Vehicle_Revenue_Miles
…
[1] "Ridership fall:  211969660"

# 5. What month had the highest VRM?

Month_Highest_VRM <- USAGE |> 
  drop_na() |>
  select(Mode, Vehicle_Revenue_Miles, month) |>
  group_by(month) |>
  summarize(sum_Vehicle_Revenue_Miles_Mode = sum(Vehicle_Revenue_Miles)) |>
  arrange(desc(sum_Vehicle_Revenue_Miles_Mode))
print(Month_Highest_VRM)

# A tibble: 271 × 2
   month      sum_Vehicle_Revenue_Miles_Mode
   <date>                              <dbl>
 1 2019-10-01                      449683378
 2 2018-10-01                      440042183
 3 2019-08-01                      436998884
 4 2019-05-01                      436386121
 5 2020-01-01                      435214109
 6 2018-08-01                      434169214
 7 2019-07-01                      431713807
 8 2019-03-01                      430340218
 9 2019-04-01                      429287578
10 2024-05-01                      428751744
# ℹ 261 more rows
…
top_agencies_UPT <- USAGE |> 
  group_by(Agency) |>
  summarise(sum_UPT = sum(Unlinked_Passenger_Trips, na.rm = TRUE)) |>
  arrange(desc(sum_UPT)) 

# 7. What month had the highest Unlinked Passenger Trips?

highest_month_UPT <- USAGE |> 
  group_by(month) |>
  summarise(sum_UPT_by_month = sum(Unlinked_Passenger_Trips, na.rm = TRUE)) |>
  arrange(desc(sum_UPT_by_month))
print(highest_month_UPT)

# A tibble: 271 × 2
   month      sum_UPT_by_month
   <date>                <dbl>
 1 2014-10-01        952626585
 2 2013-10-01        937588726
 3 2015-10-01        922306748
 4 2008-10-01        902261900
 5 2018-10-01        899141878
 6 2014-09-01        897870823
 7 2019-10-01        894334312
 8 2014-05-01        890616631
 9 2014-04-01        887375763
10 2012-10-01        886216797
# ℹ 261 more rows
…
