Mini-Project #03: Do Proportional Electoral College Allocations Yield a More Representative Presidency? – STA 9750 2024 Submission Material
…
District-Wide Winner-Take-All + State-Wide “At Large” Votes

# A tibble: 5 × 6
# Groups:   year, state, party, district [5]
   year state          party      district candidate       totalvotes
  <dbl> <chr>          <chr>         <dbl> <chr>                <dbl>
1  2020 WASHINGTON     DEMOCRAT          7 PRAMILA JAYAPAL     387109
2  2020 OREGON         DEMOCRAT          3 EARL BLUMENAUER     343574
3  2020 PENNSYLVANIA   DEMOCRAT          3 DWIGHT EVANS        341708
4  2020 NORTH CAROLINA DEMOCRAT         12 ALMA S ADAMS        341457
5  2020 MONTANA        REPUBLICAN        0 MATT ROSENDALE      339169

State-Wide Proportional

# A tibble: 4,287 × 5
    year state                candidate           party_simplified proportional
   <dbl> <chr>                <chr>               <chr>                   <dbl>
 1  2008 DISTRICT OF COLUMBIA OBAMA, BARACK H.    DEMOCRAT                0.925
 2  2020 DISTRICT OF COLUMBIA BIDEN, JOSEPH R. JR DEMOCRAT                0.921
 3  2012 DISTRICT OF COLUMBIA OBAMA, BARACK H.    DEMOCRAT                0.909
 4  2016 DISTRICT OF COLUMBIA CLINTON, HILLARY    DEMOCRAT                0.905
 5  2004 DISTRICT OF COLUMBIA KERRY, JOHN         DEMOCRAT                0.892
 6  1984 DISTRICT OF COLUMBIA MONDALE, WALTER     DEMOCRAT                0.854
 7  1996 DISTRICT OF COLUMBIA CLINTON, BILL       DEMOCRAT                0.852
 8  2000 DISTRICT OF COLUMBIA GORE, AL            DEMOCRAT                0.852
 9  1992 DISTRICT OF COLUMBIA CLINTON, BILL       DEMOCRAT                0.846
10  1988 DISTRICT OF COLUMBIA DUKAKIS, MICHAEL    DEMOCRAT                0.826
# ℹ 4,277 more rows
…
